The Democracy Gap
…
16.047
17.701
−4.591
4.563 × 10−6
−2.359
−0.947
3,382.5

1 Highlighted cell indicates a statistically significant result.

The t-statistic is -4.591 and the p-value is very small. Also, the confidence interval does not include zero, so we reject the null hypothesis and conclude that there is a statistically significant difference in the mean proportion of seats held by women between democratic and non-democratic countries. This suggests that the true difference in means is not zero.

Exploring The Global Effect of Democratic Transitions

# A tibble: 71 × 4
    year prop_democracy transitions_in transitions_out
   <int>          <dbl>          <dbl>           <dbl>
 1  1950          0.237              0               0
 2  1951          0.246              3               1
 3  1952          0.275              7               1
 4  1953          0.285              2               0
 5  1954          0.300              4               1
 6  1955          0.295              0               1
 7  1956          0.304              3               1
 8  1957          0.309              3               2
 9  1958          0.333              6               1
10  1959          0.319              1               4
# ℹ 61 more rows
…
